Project 2: data preparation
…
userBehavior <- read_csv("./data/user_behavior_dataset.csv")

Rows: 700 Columns: 11
── Column specification ────────────────────────────────────────────────────────
Delimiter: ","
chr (3): Device Model, Operating System, Gender
dbl (8): User ID, App Usage Time (min/day), Screen On Time (hours/day), Batt...

ℹ Use `spec()` to retrieve the full column specification for this data.
ℹ Specify the column types or set `show_col_types = FALSE` to quiet this message.

userBehavior

# A tibble: 700 × 11
   `User ID` `Device Model`     `Operating System` `App Usage Time (min/day)`
       <dbl> <chr>              <chr>                                   <dbl>
 1         1 Google Pixel 5     Android                                   393
 2         2 OnePlus 9          Android                                   268
 3         3 Xiaomi Mi 11       Android                                   154
 4         4 Google Pixel 5     Android                                   239
 5         5 iPhone 12          iOS                                       187
 6         6 Google Pixel 5     Android                                    99
 7         7 Samsung Galaxy S21 Android                                   350
 8         8 OnePlus 9          Android                                   543
 9         9 Samsung Galaxy S21 Android                                   340
10        10 iPhone 12          iOS                                       424
# ℹ 690 more rows
# ℹ 7 more variables: `Screen On Time (hours/day)` <dbl>,
#   `Battery Drain (mAh/day)` <dbl>, `Number of Apps Installed` <dbl>,
#   `Data Usage (MB/day)` <dbl>, Age <dbl>, Gender <chr>,
#   `User Behavior Class` <dbl>

# Janitor automatically fixes spaces, parentheses, slashes, and symbols
userBehavior <- userBehavior |>
  clean_names()
userBehavior

# A tibble: 700 × 11
   user_id device_model       operating_system app_usage_time_min_day
     <dbl> <chr>              <chr>                             <dbl>
 1       1 Google Pixel 5     Android                             393
 2       2 OnePlus 9          Android                             268
 3       3 Xiaomi Mi 11       Android                             154
 4       4 Google Pixel 5     Android                             239
 5       5 iPhone 12          iOS                                 187
 6       6 Google Pixel 5     Android                              99
 7       7 Samsung Galaxy S21 Android                             350
 8       8 OnePlus 9          Android                             543
 9       9 Samsung Galaxy S21 Android                             340
10      10 iPhone 12          iOS                                 424
# ℹ 690 more rows
# ℹ 7 more variables: screen_on_time_hours_day <dbl>,
#   battery_drain_m_ah_day <dbl>, number_of_apps_installed <dbl>,
#   data_usage_mb_day <dbl>, age <dbl>, gender <chr>, user_behavior_class <dbl>
…
# to maintain my order and not let R order it alphabetically 
userBehavior$user_behavior_class_label <- factor(
  userBehavior$user_behavior_class_label,
  levels = c("Minimal User", "Light User", "Moderate User", "Heavy User", "Power User"),
  ordered = TRUE
)
userBehavior

# A tibble: 700 × 13
   user_id device_model       operating_system app_usage_time_min_day
   <chr>   <chr>              <fct>                             <dbl>
 1 1       Google Pixel 5     Android                             393
 2 2       OnePlus 9          Android                             268
 3 3       Xiaomi Mi 11       Android                             154
 4 4       Google Pixel 5     Android                             239
 5 5       iPhone 12          iOS                                 187
 6 6       Google Pixel 5     Android                              99
 7 7       Samsung Galaxy S21 Android                             350
 8 8       OnePlus 9          Android                             543
 9 9       Samsung Galaxy S21 Android                             340
10 10      iPhone 12          iOS                                 424
# ℹ 690 more rows
# ℹ 9 more variables: screen_on_time_hours_day <dbl>,
#   battery_drain_m_ah_day <dbl>, number_of_apps_installed <dbl>,
#   data_usage_mb_day <dbl>, age <dbl>, gender <fct>,
#   user_behavior_class <fct>, age_group <chr>, user_behavior_class_label <ord>
…
